Login > Hasło
-------------------
szlang > #gdsa26298 
krdenc > #krenc234423 
szpawl > #safhj777 
alkowa > #lsakh787 
kapiet > #zncxk65 
kawojt > #slkd76 
emmura > #slkjd234 
prkode > #ldsmk5124 
semaje > #mdxkj5243 
izszew > #jdsfh16 
papior > #dfskj7243 
jaszcz > #dfskj243 
jaanto > #cndfsk743 
pawirk > #dfskj7482 
masien > #mdfs733 
