"Year,"Number of people who died by becoming tangled in their bedsheets","Per capita cheese consumption"
2000,327,29.8
2001,456,30.1
2002,509,30.5
2003,497,30.6
2004,596,31.3
2005,573,31.7
2006,661,32.6
2007,741,33.1
2008,809,32.7
2009,711,32.8