;czas;oddzial
1;4,8;pierwszy
2;4,5;pierwszy
3;4,2;pierwszy
4;5;drugi
5;4,3;drugi
6;4,5;drugi
7;5,4;trzeci
8;4,8;trzeci
9;6,3;trzeci
10;4,7;pierwszy
11;5,3;pierwszy
12;5;pierwszy
13;6,1;drugi
14;5,4;drugi
15;5,9;drugi
16;7;trzeci
17;6,6;trzeci
18;6,3;trzeci
