Date,Open,High,Low,Close,Adj Close,Volume
2014-11-01,46.889999,50.049999,46.730000,47.810001,42.797955,523005900
2014-12-01,47.880001,49.060001,44.900002,46.450001,41.842781,626771200
2015-01-01,46.660000,47.910000,40.349998,40.400002,36.392864,918966800
2015-02-01,40.590000,44.299999,40.230000,43.849998,39.500660,656509700
2015-03-01,43.669998,44.189999,40.540001,40.660000,36.887737,824335300
2015-04-01,40.599998,49.540001,40.119999,48.639999,44.127377,874535300
2015-05-01,48.580002,48.910000,46.020000,46.860001,42.512527,633072800
2015-06-01,47.060001,47.770000,43.939999,44.150002,40.314255,664853400
2015-07-01,44.459999,47.400002,43.320000,46.700001,42.642704,725458100
2015-08-01,46.980000,48.410000,39.720001,43.520000,39.738991,776480300
2015-09-01,42.169998,45.000000,41.660000,44.259998,40.681206,673079900
2015-10-01,44.750000,54.369999,43.750000,52.639999,48.383606,856716800
2015-11-01,52.849998,54.980000,52.529999,54.349998,49.955330,662626600
2015-12-01,54.410000,56.849998,53.680000,55.480000,51.337688,792820900
2016-01-01,54.320000,55.389999,49.099998,55.090000,50.976810,927914700
2016-02-01,54.880001,55.090000,48.189999,50.880001,47.081139,814770900
2016-03-01,50.970001,55.639999,50.580002,55.230000,51.473286,641110900
2016-04-01,55.049999,56.770000,49.349998,49.869999,46.477879,699025700
2016-05-01,50.000000,53.000000,49.459999,53.000000,49.394974,530704800
2016-06-01,52.439999,52.950001,48.040001,51.169998,48.023003,823627000
2016-07-01,51.130001,57.290001,50.389999,56.680000,53.194141,647587800
2016-08-01,56.599998,58.700001,56.139999,57.459999,53.926167,467078900
2016-09-01,57.009998,58.189999,55.610001,57.599998,54.394482,526427800
2016-10-01,57.410000,61.369999,56.320000,59.919998,56.585373,614841800
2016-11-01,59.970001,61.410000,57.279999,60.259998,56.906445,613056800
2016-12-01,60.110001,64.099998,58.799999,62.139999,59.078251,513579700
2017-01-01,62.790001,65.910004,61.950001,64.650002,61.464577,493453500
2017-02-01,64.360001,65.239998,62.750000,63.980000,60.827587,440744000
2017-03-01,64.129997,66.190002,63.619999,65.860001,62.994560,489169700
2017-04-01,65.809998,69.139999,64.849998,68.459999,65.481438,433191200
2017-05-01,68.680000,70.739998,67.139999,69.839996,66.801399,517218500
2017-06-01,70.239998,72.889999,68.089996,68.930000,66.308907,629716800
2017-07-01,69.330002,74.419998,68.019997,72.699997,69.935555,469851200
2017-08-01,73.099998,74.959999,71.279999,74.769997,71.926834,444070500
2017-09-01,74.709999,75.970001,72.919998,74.489998,72.039268,375983900
2017-10-01,74.709999,86.199997,73.709999,83.180000,80.443352,449950000
2017-11-01,83.680000,85.059998,82.239998,84.169998,81.400795,421926000
2017-12-01,83.599998,87.500000,80.699997,85.540001,83.141182,466203300
2018-01-01,86.129997,95.449997,85.500000,95.010002,92.345612,574258400
2018-02-01,94.790001,96.070000,83.830002,93.769997,91.140381,725663300
2018-03-01,93.989998,97.239998,87.080002,91.269997,89.127190,750754800
2018-04-01,90.470001,97.900002,87.510002,93.519997,91.324371,668130700
2018-05-01,93.209999,99.989998,92.449997,98.839996,96.519478,509417900
2018-06-01,99.279999,102.690002,97.260002,98.610001,96.712257,602585200
2018-07-01,98.099998,111.150002,98.000000,106.080002,104.038513,569352300
2018-08-01,106.029999,112.779999,104.839996,112.330002,110.168228,456628100
2018-09-01,110.849998,115.290001,107.230003,114.370003,112.600616,480255500
2018-10-01,114.750000,116.180000,100.110001,106.809998,105.157578,927548000
2018-11-01,107.050003,112.239998,99.349998,110.889999,109.174454,720228600
2018-12-01,113.000000,113.419998,93.959999,101.570000,100.430641,944314600
2019-01-01,99.550003,107.900002,97.199997,104.430000,103.258560,714212800
2019-02-01,103.779999,113.239998,102.349998,112.029999,110.773308,469095900
2019-03-01,112.889999,120.820000,108.800003,117.940002,117.115051,589095800
2019-04-01,118.949997,131.369995,118.099998,130.600006,129.686493,433157700
2019-05-01,130.529999,130.649994,123.040001,123.680000,122.814903,547218800
2019-06-01,123.849998,138.399994,119.010002,133.960007,133.515411,508324300
2019-07-01,136.630005,141.679993,134.669998,136.270004,135.817734,484079900
2019-08-01,137.000000,140.940002,130.779999,137.860001,137.402451,584482000
2019-09-01,136.610001,142.369995,134.509995,139.029999,139.029999,472544800
2019-10-01,139.660004,141.029999,133.220001,139.679993,139.679993,202723600
2019-10-11,140.119995,141.000000,139.509995,139.679993,139.679993,25551065
