;x1;y1;x1;y1;x1;y1;x1;y1;x1;y1;x1;y1;x1;y1
poziom;1,1499;-0,5202;1,191;-0,07;1,3514;0,1923;1,3826;0,2496;1,013;0,1476;1,4542;-0,1771;1,3933;0,2399
kwalifikacje;0,827;-0,3832;1,2136;-0,1185;1,2132;0,3989;1,1523;0,45;0,8481;-0,0343;1,0246;0,2792;1,0077;-0,1041
metody;0,5933;-0,6912;0,9378;-0,3649;0,8902;0,311;1,0796;0,3519;0,5225;-0,236;0,4634;0,1197;0,5812;-0,2394
atmosfera;0,5024;-0,622;0,8033;-0,7185;0,2951;0,4455;0,2695;0,2326;0,3945;0,8998;0,8341;-0,532;0,7177;-0,5102
cena;0,1679;0,9168;0,2461;0,5411;0,3739;-0,8233;0,0025;-1,0795;0,5465;0,9891;0,7648;-0,085;-1,9736;0,6264
lokalizacja;-0,44;1,1501;-1,4879;0,5995;-1,6011;-1,0088;-0,9469;0,6035;-0,5357;-1,367;-1,2616;0,7957;-1,2039;-1,6538
godziny;0,1679;0,7346;-0,6283;1,1627;-0,4571;-0,8791;-0,2196;-1,0674;0,1827;-0,7299;-0,7027;0,6621;-0,0913;-0,126
opinie;-2,9685;-0,5849;-2,2757;-1,0315;-2,0356;1,3635;-2,7201;0,2593;-2,9715;0,3306;-2,5768;-1,0628;-0,431;1,7671
