;x1;x2;x3;x4;x5;x6;x7;x8
P;6,114;5,829;2,829;5,4;4,457;1,757;3,714;4,286
PL;6,243;5,471;6,014;4,686;3,914;2,986;3,957;4
C;6,086;5,857;2,6;5,371;4,371;2,2;3,986;4,386
CL;6,243;5,357;5,657;4,714;4,229;3,186;4,071;4,286
SU;4,229;5,371;3,643;4,514;3,3;2,786;4,271;4,671
M;2,543;4,886;3,286;5,6;3,929;3,4;3,871;4,457
F;2,814;5,114;3,257;5,4;3,657;2,043;4,157;4,671
S;4,286;5,429;3,757;4,529;2,957;2,343;4,114;4,9
SI;3,514;4,971;3,343;5,171;3,686;3,786;4,243;4,171
