(Intercept);factor(x$rodzaj)1;factor(x$rodzaj)2;factor(x$rodzaj)3;factor(x$cena)1;factor(x$cena)2;factor(x$opakowan)1;factor(x$waga)1;factor(x$waga)2;factor(x$kalorie)1
1;1;0;0;1;0;1;1;0;1
1;0;1;0;0;1;0;-1;-1;-1
1;-1;-1;-1;1;0;1;0;1;-1
