"1:dim(gM)[1]";"klasy";"X1";"X2";"X3";"X4"
"1";1;1;-4,11259569177678;5,51505298993039;-3,92669767228252;-14,1298930382006
"2";2;1;-3,15398336023028;5,17560184521888;-3,40784678722957;-8,15671441806537
"3";3;1;-6,92958518548076;5,40394356647678;-4,88762342224692;11,4590427454130
"4";4;1;-3,61979318461547;5,80463922567923;-5,8000864685276;7,71690915967578
"5";5;1;-4,62784949707384;3,75611325726129;-5,24289695427882;11,3708653847846
"6";6;1;-1,81405553637375;5,30721882011836;-5,2005162063957;21,2941892816457
"7";7;1;-5,3167527194318;6,94334705314768;-2,9265861931521;-13,1437273063569
"8";8;1;-0,483578689143636;7,5472181765806;-4,36143922575235;2,95788521603949
"9";9;1;-5,88762264159779;6,02609157144956;-3,36183787715786;8,6604291499511
"10";10;1;-4,94346757124188;5,89389207220627;-5,38107490130096;8,24121692889482
"11";11;1;-4,84665136899358;5,09790983119714;-4,79720389680338;24,3283068747239
"12";12;1;-4,41610409805949;6,13213116743758;-4,33001349133032;1,04390744069928
"13";13;1;-2,73592901825077;5,45382473618239;-2,90967651848307;-0,312422814599307
"14";14;3;5,57817422071207;13,4188997562436;4,63003923155381;23,8041638782465
"15";15;3;4,0344604527634;15,0087061816410;5,85476255591775;7,06350446349306
"16";16;3;5,44131305440379;14,0525619204714;4,64589263038754;-10,8589218110157
"17";17;3;6,02573971656734;13,2575607980990;4,4305792798829;-8,27542419682332
"18";18;3;2,90788861365872;15,6251586519693;6,10183073806301;-0,293501470695670
"19";19;3;4,03562126574499;14,3454631244824;5,79191610237715;3,48354763249568
"20";20;3;4,76168856987164;15,2000679266703;5,52883782383098;-12,8886487251291
"21";21;3;6,82328501236065;12,0521984874999;2,99394315216819;10,3890856725070
"22";22;3;4,99683736454955;14,5156174957418;5,46030237812107;-7,548439349763
"23";23;3;3,74187253857819;15,3180020018800;6,50887820521403;5,67544807938511
"24";24;3;5,16164294925;13,8231633576042;4,76988722673497;-5,28797358253381
"25";25;3;6,04985447270393;12,6585754189471;3,28533452789749;-15,0046998857262
"26";26;3;5,0766851339933;14,582799293656;5,22136368024347;16,7219702782233
"27";27;3;4,58919844879956;14,3959114481703;4,68204708314299;6,52825382734083
"28";28;3;4,7785164139962;14,2309298034336;5,36485423734825;24,9065752114725
"29";29;3;3,55672396222742;15,4226203266182;6,26739849098486;4,75541930926118
"30";30;4;14,4313874981155;5,08833714945341;14,6192483395702;-13,4641112377966
"31";31;4;13,7633799189099;5,39227922599629;14,5571423365034;24,7821066625691
"32";32;4;13,9837661050868;5,4227392583151;13,5905163774141;17,9571067391424
"33";33;4;14,6169212117168;5,12519956906774;14,2904885975455;24,4139174508191
"34";34;4;13,3608672403523;5,51843887685421;13,3773214687245;-17,4713893371765
"35";35;4;14,2890848972472;4,83595801237586;13,9725631254138;-15,5215072786225
"36";36;4;11,8414789818415;2,93684248447574;11,7738733292475;24,3747256976385
"37";37;4;15,1946108512642;6,07234413986618;15,6486114102797;12,9903876974906
"38";38;4;13,7614959768502;5,30168618230958;14,4410368809163;-17,0731263253002
"39";39;4;13,1096616647416;3,93398031786309;13,9416786297801;16,4278758264054
"40";40;4;14,3621450278516;4,97905294694357;14,3164124815945;24,8267465734905
"41";41;4;14,1079609718569;4,99357135852504;13,6052095760779;-9,06743529012705
"42";42;4;15,6814563549813;6,6814113422885;15,5969915544451;-4,7755327050076
"43";43;4;14,7079969734371;5,92573730615193;14,5668666606149;-0,867710919582638
"44";44;4;14,6064835748883;5,65641797437795;14,5587395424626;18,5828954333015
"45";45;4;14,1853698737382;4,76604489958461;14,0058985961043;-14,6044525320255
"46";46;4;13,9220549264883;4,97156128521451;13,7367210805170;7,27925191735669
"47";47;4;12,8302556462144;3,76556129904919;13,7486261046472;-3,13121405048503
"48";48;4;12,1717495517211;4,22856204515411;12,3237708626154;7,3517991216989
"49";49;4;16,8460005815828;7,27421084111198;16,3804430739132;10,8451372359548
"50";50;4;13,1673645545643;4,55665120167393;13,8317331717338;22,6131062539492
"51";51;4;13,5531880198423;4,71715496191752;14,0304337797625;-11,9066866432301
"52";52;4;14,3740685511440;5,68028459479015;14,3539348909423;-8,80027316976864
"53";53;4;14,0166541993426;4,96900690481598;13,4213586060711;-15,8627593529066
"54";54;4;15,3453360053499;6,48990343878917;15,944645348213;10,4032370766796
"55";55;4;13,5824145825303;5,47877881591235;13,4940725871717;19,1773693971034
"56";56;4;15,1107563571533;6,32405293751108;16,0906002619086;14,4366230942449
"57";57;4;14,0151034764260;5,54740726072502;14,0685567814879;6,46330413237313
"58";58;4;14,2046519260419;5,18781340642555;15,0153283618236;25,1211079849515
"59";59;4;14,4130296015979;4,78802882697325;13,8145480918773;14,3683179016917
"60";60;4;14,4010156730638;5,59029902738646;14,659724827555;12,8851023982842
"61";61;4;13,0638199471666;4,1251994738938;13,3565855449325;-19,4256745703686
"62";62;4;13,8488246487609;4,92439564604473;13,6653750831906;-2,76364733508857
"63";63;4;12,9660649750083;4,05587552557851;12,7539181852501;-16,1282137461996
"64";64;4;16,1938487600850;7,5404972700602;16,3621179383299;-0,233120736032807
"65";65;4;13,3726052904625;4,27580572632816;13,2912967776965;-12,1097918974426
"66";66;4;14,7822055606671;5,95767580357692;15,3441373683331;16,6720903117903
"67";67;4;14,5537733742604;5,51252462426067;14,9225151230844;-3,12040246511041
"68";68;4;13,7801829114898;4,96968789475596;13,54032494268;23,0551741385351
"69";69;4;13,7724042773035;4,63040491618921;13,0753282546280;4,13306664023314
"70";70;4;14,9179916928597;5,70799277925186;14,5365252191949;-6,25568842030431
"71";71;4;14,0252510341976;5,52544804037307;14,0799993821670;-12,1812106170159
"72";72;4;14,4116492369864;5,27898160911392;14,4513591851169;-17,4095451412588
"73";73;4;14,0229857071462;4,96349413487793;14,6495227134138;4,36980898188845
"74";74;4;14,2454585047745;5,70681334370162;14,6127873805625;7,52270965070896
"75";75;4;13,9170546738408;4,73539353438225;13,3924402831867;-9,48916646194502
"76";76;4;14,5219851983209;5,61307229440184;14,3507784280771;13,4045443231616
"77";77;4;13,8062070867867;4,30717912681364;14,0086088021432;14,6684751197192
"78";78;4;13,9752094878106;4,91576600123041;14,1761752299379;6,67974631277063
"79";79;4;14,6486030960173;5,28206751601752;14,2848095960201;-13,9672590232083
"80";80;2;3,81600255066754;-6,30188266484207;5,04524815000233;7,75681494962192
"81";81;2;2,72404974388008;-3,73306078858482;4,64231517081363;2,98043607532003
"82";82;2;3,92192270488987;-6,90322433343304;2,25344986311838;-11,7351814086520
"83";83;2;5,38482950056238;-6,00437988411106;4,23045805198612;8,59847612923978
"84";84;2;4,96747155855184;-4,90085785612752;4,61101399607468;13,3113455156547
"85";85;2;2,9864099969531;-4,26787806264712;5,17871738854798;-3,41075890003184
"86";86;2;3,41945816419997;-8,46304589086438;3,23066020617145;-0,921185552458792
"87";87;2;6,02228061151795;-1,94664869282533;5,93399494544205;1,40492809530343
"88";88;2;6,2927977738359;-3,25952817358188;5,14479274524253;8,53400250906952
"89";89;2;7,33657114825793;-3,67795494183329;6,16755962333994;-17,9710032963060
"90";90;2;3,31504455564566;-5,0622371509499;3,95224204329674;11,9721270782217
"91";91;2;4,67962561641091;-5,57473366824962;6,3462117500731;25,1843128302264
"92";92;2;7,0059436156685;-0,40509856814899;8,15014452069094;-11,8014785526232
"93";93;2;2,65090324942372;-5,99740666900623;3,03759195380277;8,82254689641593
"94";94;2;2,92868627764123;-5,41927759690505;4,80274833533139;6,91166894127961
"95";95;2;4,22819061825888;-5,82524944703909;4,74101035806375;-6,0865773311845
"96";96;2;0,638713472563172;-9,74335363467092;0,741850578454131;-5,71339576721326
"97";97;2;5,69011452531724;-2,92109495533867;5,85725019361407;-7,7367954877868
"98";98;2;6,13258667541849;-1,72890920456933;8,70626902097673;-10,3128404732215
"99";99;2;6,60120098605062;-2,24311055065037;7,38463203456381;-16,0118483071573
"100";100;2;6,06692001949146;-3,14878691513969;5,46928730515126;1,84679854570095
"101";101;2;3,90608593884168;-3,04729235067527;2,95141101025425;-10,1096039697779
"102";102;2;3,78127017011121;-4,75747186418589;5,96868162934534;-17,0132149305604
"103";103;2;2,56999901654774;-7,94137486982168;0,912453927568192;-7,26500772341526
"104";104;2;5,61454141360851;-2,77753084547964;7,01314149526793;23,3097400180247
"105";105;2;1,74770483290960;-5,64249181758946;3,35067898260435;7,46519171177636
"106";106;2;3,64207041481266;-2,44025157364584;3,24401520290356;-12,7344127320634
"107";107;2;6,16168000734399;-3,83339001240006;6,40403350543038;-13,0452090041486
"108";108;2;4,95899164556946;-4,7653241099477;5,48555778414796;-18,4494593729089
"109";109;2;2,34314459642802;-7,64301406570784;1,06137426544881;10,9309788882827
"110";110;2;3,60770039139005;-5,33312773229933;5,37618609421301;12,1961052705091
"111";111;2;3,32166545966947;-6,66383725500689;4,72925581832814;-13,9258660652496
"112";112;2;4,85902908341723;-3,63410020872358;3,05785108456771;17,8047739784624
"113";113;0;26,6067521810288;-13,9597915525721;23,9907639591133;8,81332720904385
"114";114;0;24,2055506692955;-12,1754146598453;21,1312977207002;-11,3225333625061
"115";115;0;22,3639270857198;-19,3791243523067;20,5169618815293;21,4481654378715
"116";116;0;-14,8611076766360;-13,8607609403027;-7,72695057799532;17,25875032352
"117";117;0;-12,6625946672833;25,5524657710967;-14,7394583721874;7,74311557943927
"118";118;0;-15,4836260239794;-14,8487164441669;-14,3498222903111;1,12749312563872
"119";119;0;-10,8116426184974;-18,9444232488224;21,7602327711524;20,4898539825177
"120";120;0;-16,5068292202162;18,3256109387194;-8,18266924919984;4,17284708608594
"121";121;0;25,3459250033589;-13,3496287004730;23,9884429912658;-8,1767464127906
"122";122;0;26,4204820416158;-15,1175893822858;-7,1717666090229;-0,635844551519948
"123";123;0;-11,3358878177791;21,5157663011969;-14,8237963568648;-7,96579660323706
"124";124;0;24,5535243044829;-19,6749518816998;23,1804931076353;25,7803185630727
"125";125;0;-15,6969738890151;-12,3729591170033;20,6011590628063;22,272564714296
"126";126;0;18,9341933397332;16,9638578663626;-9,5808127690801;4,04366329540696
"127";127;0;-9,63797864655172;-16,3022002790296;-9,0874086484076;4,37131405927888
"128";128;0;25,4784485754313;-14,6839382211385;24,8458286399131;-7,12982596140577
"129";129;0;-8,89082797465053;20,7403175467671;21,7178726818987;17,4016613829251
"130";130;0;-16,5576333246394;17,6661510211461;25,1353605490753;-6,58472462864676
"131";131;0;-10,3620320769227;-19,2090066578878;-10,5860730179814;6,82561750569788
"132";132;0;24,3423265799170;-13,8305622926621;18,3602825171423;-12,7533425457450
"133";133;0;-14,0941298223301;21,0371983293490;-10,6842232684833;20,4807874300244
"134";134;0;20,6947376318963;-13,9253542812714;25,0711171756142;25,8916987295938
